[
    {
        "movie": 153, 
        "user": 1, 
        "p": 0.15736612485146795
    }, 
    {
        "movie": 99, 
        "user": 2, 
        "p": 3.2893132252344812
    }, 
    {
        "movie": 402, 
        "user": 3, 
        "p": 1.5104782974945812
    }, 
    {
        "movie": 417, 
        "user": 4, 
        "p": 2.6525744974409968
    }, 
    {
        "movie": 99, 
        "user": 5, 
        "p": 1.9292892310921863
    }, 
    {
        "movie": 480, 
        "user": 6, 
        "p": 0.57579144891261347
    }, 
    {
        "movie": 92, 
        "user": 7, 
        "p": 2.2525535805008854
    }, 
    {
        "movie": 354, 
        "user": 8, 
        "p": 3.0647592286285263
    }, 
    {
        "movie": 49, 
        "user": 9, 
        "p": 1.2257394674203264
    }, 
    {
        "movie": 143, 
        "user": 10, 
        "p": 1.376905034540195
    }, 
    {
        "movie": 137, 
        "user": 11, 
        "p": 0.66200018509985836
    }, 
    {
        "movie": 121, 
        "user": 12, 
        "p": 0.38320437042173472
    }, 
    {
        "movie": 92, 
        "user": 13, 
        "p": 1.6276600764504705
    }, 
    {
        "movie": 105, 
        "user": 14, 
        "p": 0.35084476900422357
    }, 
    {
        "movie": 2174, 
        "user": 15, 
        "p": 4.0573524563712331
    }, 
    {
        "movie": 122, 
        "user": 16, 
        "p": 0.9103160659345616
    }, 
    {
        "movie": 183, 
        "user": 17, 
        "p": 4.0126156279817762
    }, 
    {
        "movie": 89, 
        "user": 18, 
        "p": 0.9651592874263123
    }, 
    {
        "movie": 457, 
        "user": 19, 
        "p": 2.9144965818272657
    }, 
    {
        "movie": 89, 
        "user": 20, 
        "p": 2.0206952446409083
    }, 
    {
        "movie": 505, 
        "user": 21, 
        "p": 2.9003948400068107
    }, 
    {
        "movie": 113, 
        "user": 22, 
        "p": 3.0893170256178162
    }, 
    {
        "movie": 161, 
        "user": 23, 
        "p": 4.2476409859405981
    }, 
    {
        "movie": 72, 
        "user": 24, 
        "p": 1.2659916769169561
    }, 
    {
        "movie": 89, 
        "user": 25, 
        "p": 0.53021677232973019
    }, 
    {
        "movie": 480, 
        "user": 26, 
        "p": 3.4908930246377965
    }, 
    {
        "movie": 99, 
        "user": 27, 
        "p": 1.1891339149242319
    }, 
    {
        "movie": 736, 
        "user": 28, 
        "p": 1.1422276533318283
    }, 
    {
        "movie": 122, 
        "user": 29, 
        "p": 0.41385791213485729
    }, 
    {
        "movie": 2252, 
        "user": 30, 
        "p": 3.913274892032117
    }, 
    {
        "movie": 121, 
        "user": 31, 
        "p": 2.2471989221372946
    }, 
    {
        "movie": 99, 
        "user": 32, 
        "p": 2.4925766213094396
    }, 
    {
        "movie": 121, 
        "user": 33, 
        "p": 1.3362094291532249
    }, 
    {
        "movie": 106, 
        "user": 34, 
        "p": 3.5588827844002684
    }, 
    {
        "movie": 782, 
        "user": 35, 
        "p": 0.11352470432331449
    }, 
    {
        "movie": 29, 
        "user": 36, 
        "p": 2.9748556065348808
    }, 
    {
        "movie": 99, 
        "user": 37, 
        "p": 0.69189984024319695
    }, 
    {
        "movie": 24, 
        "user": 38, 
        "p": 2.2729951303122831
    }, 
    {
        "movie": 57, 
        "user": 39, 
        "p": 2.1422124765340489
    }, 
    {
        "movie": 402, 
        "user": 40, 
        "p": 1.8931583895407804
    }, 
    {
        "movie": 89, 
        "user": 41, 
        "p": 3.2552398879543629
    }, 
    {
        "movie": 92, 
        "user": 42, 
        "p": 2.802608143458917
    }, 
    {
        "movie": 99, 
        "user": 43, 
        "p": 1.3659937859275404
    }, 
    {
        "movie": 89, 
        "user": 44, 
        "p": 0.78474981468392224
    }, 
    {
        "movie": 343, 
        "user": 45, 
        "p": 0.29619660951169685
    }, 
    {
        "movie": 402, 
        "user": 46, 
        "p": 0.97112331905687366
    }, 
    {
        "movie": 57, 
        "user": 47, 
        "p": 2.5225704776381388
    }, 
    {
        "movie": 559, 
        "user": 48, 
        "p": 4.2712744263764852
    }, 
    {
        "movie": 143, 
        "user": 49, 
        "p": 2.1082147064837153
    }, 
    {
        "movie": 92, 
        "user": 50, 
        "p": 2.4275817647828788
    }, 
    {
        "movie": 298, 
        "user": 51, 
        "p": 0.31057844170626409
    }, 
    {
        "movie": 354, 
        "user": 52, 
        "p": 0.91237525244546558
    }, 
    {
        "movie": 121, 
        "user": 53, 
        "p": 0.46098584853695262
    }, 
    {
        "movie": 137, 
        "user": 54, 
        "p": 0.85484823730591353
    }, 
    {
        "movie": 89, 
        "user": 55, 
        "p": 1.0360298464366056
    }, 
    {
        "movie": 157, 
        "user": 56, 
        "p": 4.4962849520116475
    }, 
    {
        "movie": 106, 
        "user": 57, 
        "p": 2.9897358166474892
    }, 
    {
        "movie": 179, 
        "user": 58, 
        "p": 0.66367896239214952
    }, 
    {
        "movie": 57, 
        "user": 59, 
        "p": 2.4102914408023128
    }, 
    {
        "movie": 121, 
        "user": 60, 
        "p": 1.1156344772157516
    }, 
    {
        "movie": 417, 
        "user": 61, 
        "p": 2.4975532320807439
    }, 
    {
        "movie": 402, 
        "user": 62, 
        "p": 1.5245667301338053
    }, 
    {
        "movie": 179, 
        "user": 63, 
        "p": 2.3890532849723969
    }, 
    {
        "movie": 72, 
        "user": 64, 
        "p": 1.7083103910802833
    }, 
    {
        "movie": 180, 
        "user": 65, 
        "p": 0.84062511080335367
    }, 
    {
        "movie": 106, 
        "user": 66, 
        "p": 1.8880839251009618
    }, 
    {
        "movie": 29, 
        "user": 67, 
        "p": 3.1400877530633964
    }, 
    {
        "movie": 402, 
        "user": 68, 
        "p": 2.9601281515674467
    }, 
    {
        "movie": 88, 
        "user": 69, 
        "p": 2.4001870451315419
    }, 
    {
        "movie": 72, 
        "user": 70, 
        "p": 1.3177745392880271
    }, 
    {
        "movie": 157, 
        "user": 71, 
        "p": 0.36893618911452281
    }, 
    {
        "movie": 464, 
        "user": 72, 
        "p": 2.6251425202320058
    }, 
    {
        "movie": 171, 
        "user": 73, 
        "p": 3.7301081180887663
    }, 
    {
        "movie": 180, 
        "user": 74, 
        "p": 1.5847457626332615
    }, 
    {
        "movie": 106, 
        "user": 75, 
        "p": 2.8480665028189351
    }, 
    {
        "movie": 736, 
        "user": 76, 
        "p": 0.18576469769834866
    }, 
    {
        "movie": 412, 
        "user": 77, 
        "p": 3.9956361649554264
    }, 
    {
        "movie": 119, 
        "user": 78, 
        "p": 4.3074843244155616
    }, 
    {
        "movie": 89, 
        "user": 79, 
        "p": 1.2930722734019902
    }, 
    {
        "movie": 49, 
        "user": 80, 
        "p": 0.81808330025189779
    }, 
    {
        "movie": 103, 
        "user": 81, 
        "p": 1.3978769356667731
    }, 
    {
        "movie": 72, 
        "user": 82, 
        "p": 2.4517319307826511
    }, 
    {
        "movie": 327, 
        "user": 83, 
        "p": 2.0537836294302441
    }, 
    {
        "movie": 197, 
        "user": 84, 
        "p": 2.6139743538329498
    }, 
    {
        "movie": 29, 
        "user": 85, 
        "p": 3.9956132488911211
    }, 
    {
        "movie": 57, 
        "user": 86, 
        "p": 3.9451976885609619
    }, 
    {
        "movie": 89, 
        "user": 87, 
        "p": 0.8302395115463912
    }, 
    {
        "movie": 354, 
        "user": 88, 
        "p": 4.0620788142166999
    }, 
    {
        "movie": 57, 
        "user": 89, 
        "p": 3.2915182331837736
    }, 
    {
        "movie": 89, 
        "user": 90, 
        "p": 1.0731013669597262
    }, 
    {
        "movie": 49, 
        "user": 91, 
        "p": 2.5934706955672913
    }, 
    {
        "movie": 92, 
        "user": 92, 
        "p": 4.4196769850168396
    }, 
    {
        "movie": 99, 
        "user": 93, 
        "p": 4.0407413865260899
    }, 
    {
        "movie": 477, 
        "user": 94, 
        "p": 3.0058247584758817
    }, 
    {
        "movie": 110, 
        "user": 95, 
        "p": 2.2328511019055219
    }, 
    {
        "movie": 327, 
        "user": 96, 
        "p": 1.248627221007458
    }, 
    {
        "movie": 143, 
        "user": 97, 
        "p": 2.6029996242783642
    }, 
    {
        "movie": 99, 
        "user": 98, 
        "p": 1.2270862118268118
    }, 
    {
        "movie": 29, 
        "user": 99, 
        "p": 1.9870455532822076
    }, 
    {
        "movie": 72, 
        "user": 100, 
        "p": 0.70146866663264307
    }, 
    {
        "movie": 110, 
        "user": 101, 
        "p": 1.7135581221836496
    }, 
    {
        "movie": 182, 
        "user": 102, 
        "p": 4.908821833809685
    }, 
    {
        "movie": 106, 
        "user": 103, 
        "p": 1.9150830914568191
    }, 
    {
        "movie": 57, 
        "user": 104, 
        "p": 2.1499239805436825
    }, 
    {
        "movie": 79, 
        "user": 105, 
        "p": 4.0179838167646249
    }, 
    {
        "movie": 480, 
        "user": 106, 
        "p": 0.84818877117245384
    }, 
    {
        "movie": 99, 
        "user": 107, 
        "p": 0.77793011820468805
    }, 
    {
        "movie": 99, 
        "user": 108, 
        "p": 2.1807532357588419
    }, 
    {
        "movie": 57, 
        "user": 109, 
        "p": 1.2097712408846495
    }, 
    {
        "movie": 27, 
        "user": 110, 
        "p": 4.2917914734626095
    }, 
    {
        "movie": 119, 
        "user": 111, 
        "p": 3.6757684600541403
    }, 
    {
        "movie": 72, 
        "user": 112, 
        "p": 0.74842494179483388
    }, 
    {
        "movie": 69, 
        "user": 113, 
        "p": 0.5487259346414517
    }, 
    {
        "movie": 29, 
        "user": 114, 
        "p": 1.8466312509320411
    }, 
    {
        "movie": 49, 
        "user": 115, 
        "p": 1.5207802191304627
    }, 
    {
        "movie": 79, 
        "user": 116, 
        "p": 1.4691025075536381
    }, 
    {
        "movie": 57, 
        "user": 117, 
        "p": 0.74186351069799805
    }, 
    {
        "movie": 180, 
        "user": 118, 
        "p": 3.8354687633560873
    }, 
    {
        "movie": 186, 
        "user": 119, 
        "p": 3.7186897388341085
    }, 
    {
        "movie": 143, 
        "user": 120, 
        "p": 2.7708675021410851
    }, 
    {
        "movie": 23, 
        "user": 121, 
        "p": 2.9684681256893688
    }, 
    {
        "movie": 69, 
        "user": 122, 
        "p": 1.542702005993579
    }, 
    {
        "movie": 121, 
        "user": 123, 
        "p": 0.4812341055449626
    }, 
    {
        "movie": 143, 
        "user": 124, 
        "p": 3.1146100686844536
    }, 
    {
        "movie": 92, 
        "user": 125, 
        "p": 4.1544284412921435
    }, 
    {
        "movie": 49, 
        "user": 126, 
        "p": 3.1369691388233432
    }, 
    {
        "movie": 29, 
        "user": 127, 
        "p": 1.1024839088959077
    }, 
    {
        "movie": 75, 
        "user": 128, 
        "p": 3.5406104122215285
    }, 
    {
        "movie": 402, 
        "user": 129, 
        "p": 0.25847638637918069
    }, 
    {
        "movie": 119, 
        "user": 130, 
        "p": 3.6879677888766116
    }, 
    {
        "movie": 99, 
        "user": 131, 
        "p": 1.0213479515760528
    }, 
    {
        "movie": 99, 
        "user": 132, 
        "p": 1.8579522593655655
    }, 
    {
        "movie": 137, 
        "user": 133, 
        "p": 1.6504175374285857
    }, 
    {
        "movie": 113, 
        "user": 134, 
        "p": 3.9938306772466152
    }, 
    {
        "movie": 49, 
        "user": 135, 
        "p": 0.18229144108585243
    }, 
    {
        "movie": 402, 
        "user": 136, 
        "p": 2.026950353316848
    }, 
    {
        "movie": 180, 
        "user": 137, 
        "p": 2.4203486805826953
    }, 
    {
        "movie": 92, 
        "user": 138, 
        "p": 2.3932236923251833
    }, 
    {
        "movie": 143, 
        "user": 139, 
        "p": 1.8362730053273735
    }, 
    {
        "movie": 480, 
        "user": 140, 
        "p": 1.0922833844460578
    }, 
    {
        "movie": 27, 
        "user": 141, 
        "p": 0.73611091453807298
    }, 
    {
        "movie": 99, 
        "user": 142, 
        "p": 0.88964742269210562
    }, 
    {
        "movie": 24, 
        "user": 143, 
        "p": 1.9527076124828879
    }, 
    {
        "movie": 99, 
        "user": 144, 
        "p": 2.7188240980209142
    }, 
    {
        "movie": 69, 
        "user": 145, 
        "p": 3.0725466245790791
    }, 
    {
        "movie": 402, 
        "user": 146, 
        "p": 2.7350053710214999
    }, 
    {
        "movie": 99, 
        "user": 147, 
        "p": 1.5486411860217797
    }, 
    {
        "movie": 143, 
        "user": 148, 
        "p": 1.9101948894347756
    }, 
    {
        "movie": 480, 
        "user": 149, 
        "p": 3.2491838087043647
    }, 
    {
        "movie": 354, 
        "user": 150, 
        "p": 3.2543601905098098
    }, 
    {
        "movie": 99, 
        "user": 151, 
        "p": 3.8400240330871718
    }, 
    {
        "movie": 79, 
        "user": 152, 
        "p": 3.9073358025293321
    }, 
    {
        "movie": 99, 
        "user": 153, 
        "p": 1.596613111119926
    }, 
    {
        "movie": 88, 
        "user": 154, 
        "p": 0.46172419947893106
    }, 
    {
        "movie": 197, 
        "user": 155, 
        "p": 1.9396038111892984
    }, 
    {
        "movie": 122, 
        "user": 156, 
        "p": 0.56013542900603264
    }, 
    {
        "movie": 57, 
        "user": 157, 
        "p": 3.364358879217908
    }, 
    {
        "movie": 564, 
        "user": 158, 
        "p": 0.17322979513368622
    }, 
    {
        "movie": 417, 
        "user": 159, 
        "p": 2.4779249217160895
    }, 
    {
        "movie": 49, 
        "user": 160, 
        "p": 1.8488072477474071
    }, 
    {
        "movie": 27, 
        "user": 161, 
        "p": 3.4762253747618845
    }, 
    {
        "movie": 69, 
        "user": 162, 
        "p": 0.60334044473299719
    }, 
    {
        "movie": 180, 
        "user": 163, 
        "p": 1.7344050355644878
    }, 
    {
        "movie": 57, 
        "user": 164, 
        "p": 2.024348300165991
    }, 
    {
        "movie": 447, 
        "user": 165, 
        "p": 3.2311986827312822
    }, 
    {
        "movie": 480, 
        "user": 166, 
        "p": 1.0868416158527927
    }, 
    {
        "movie": 179, 
        "user": 167, 
        "p": 0.91962514191208866
    }, 
    {
        "movie": 72, 
        "user": 168, 
        "p": 3.2564717846701714
    }, 
    {
        "movie": 122, 
        "user": 169, 
        "p": 1.9610435911896615
    }, 
    {
        "movie": 179, 
        "user": 170, 
        "p": 0.32285310412318913
    }, 
    {
        "movie": 24, 
        "user": 171, 
        "p": 1.1285106116388173
    }, 
    {
        "movie": 92, 
        "user": 172, 
        "p": 1.7218773279145581
    }, 
    {
        "movie": 89, 
        "user": 173, 
        "p": 0.98540172623824729
    }, 
    {
        "movie": 88, 
        "user": 174, 
        "p": 0.22781187983571854
    }, 
    {
        "movie": 129, 
        "user": 175, 
        "p": 2.3392133396121184
    }, 
    {
        "movie": 1435, 
        "user": 176, 
        "p": 2.7481553274430213
    }, 
    {
        "movie": 143, 
        "user": 177, 
        "p": 4.0022867311949133
    }, 
    {
        "movie": 79, 
        "user": 178, 
        "p": 2.2932991082365897
    }, 
    {
        "movie": 480, 
        "user": 179, 
        "p": 1.0510718035993341
    }, 
    {
        "movie": 143, 
        "user": 180, 
        "p": 0.57632937134160689
    }, 
    {
        "movie": 122, 
        "user": 181, 
        "p": 0.91111568214516725
    }, 
    {
        "movie": 88, 
        "user": 182, 
        "p": 3.8087237701454133
    }, 
    {
        "movie": 57, 
        "user": 183, 
        "p": 1.7342763276045516
    }, 
    {
        "movie": 29, 
        "user": 184, 
        "p": 2.4393760269233273
    }, 
    {
        "movie": 180, 
        "user": 185, 
        "p": 3.0625305471507591
    }, 
    {
        "movie": 143, 
        "user": 186, 
        "p": 1.0658095396840752
    }, 
    {
        "movie": 122, 
        "user": 187, 
        "p": 3.5051498080221468
    }, 
    {
        "movie": 148, 
        "user": 188, 
        "p": 2.3154468148263483
    }, 
    {
        "movie": 173, 
        "user": 189, 
        "p": 1.2289627786504724
    }, 
    {
        "movie": 122, 
        "user": 190, 
        "p": 0.88194797008796244
    }, 
    {
        "movie": 79, 
        "user": 191, 
        "p": 1.5095540027447232
    }, 
    {
        "movie": 49, 
        "user": 192, 
        "p": 2.8690099829214892
    }, 
    {
        "movie": 24, 
        "user": 193, 
        "p": 1.5435022553586393
    }, 
    {
        "movie": 92, 
        "user": 194, 
        "p": 2.5739977649886954
    }, 
    {
        "movie": 720, 
        "user": 195, 
        "p": 3.6096326940819763
    }, 
    {
        "movie": 298, 
        "user": 196, 
        "p": 0.65039568352888188
    }, 
    {
        "movie": 180, 
        "user": 197, 
        "p": 2.0224729525540237
    }, 
    {
        "movie": 327, 
        "user": 198, 
        "p": 1.4815151466388681
    }, 
    {
        "movie": 202, 
        "user": 199, 
        "p": 3.2013575169078239
    }, 
    {
        "movie": 480, 
        "user": 200, 
        "p": 3.5128926203605646
    }, 
    {
        "movie": 402, 
        "user": 201, 
        "p": 3.7580797645206547
    }, 
    {
        "movie": 143, 
        "user": 202, 
        "p": 1.249142089069708
    }, 
    {
        "movie": 49, 
        "user": 203, 
        "p": 0.94904399881775148
    }, 
    {
        "movie": 157, 
        "user": 204, 
        "p": 0.33304453303098136
    }, 
    {
        "movie": 1597, 
        "user": 205, 
        "p": 2.2290208364852386
    }, 
    {
        "movie": 143, 
        "user": 206, 
        "p": 1.3984425843684651
    }, 
    {
        "movie": 92, 
        "user": 207, 
        "p": 0.34205760854022321
    }, 
    {
        "movie": 99, 
        "user": 208, 
        "p": 1.3062018656696563
    }, 
    {
        "movie": 69, 
        "user": 209, 
        "p": 0.16790783712400451
    }, 
    {
        "movie": 57, 
        "user": 210, 
        "p": 0.4985738734927917
    }, 
    {
        "movie": 72, 
        "user": 211, 
        "p": 1.1962016242408389
    }, 
    {
        "movie": 174, 
        "user": 212, 
        "p": 3.6979616368261459
    }, 
    {
        "movie": 208, 
        "user": 213, 
        "p": 3.5270955440142688
    }, 
    {
        "movie": 57, 
        "user": 214, 
        "p": 3.1415498479299737
    }, 
    {
        "movie": 179, 
        "user": 215, 
        "p": 1.6597678937405971
    }, 
    {
        "movie": 354, 
        "user": 216, 
        "p": 2.6122256833197088
    }, 
    {
        "movie": 402, 
        "user": 217, 
        "p": 2.4891758732808889
    }, 
    {
        "movie": 402, 
        "user": 218, 
        "p": 1.4339757935479427
    }, 
    {
        "movie": 92, 
        "user": 219, 
        "p": 2.3345703129432338
    }, 
    {
        "movie": 99, 
        "user": 220, 
        "p": 4.2297977376916194
    }, 
    {
        "movie": 106, 
        "user": 221, 
        "p": 0.25161233655150295
    }, 
    {
        "movie": 733, 
        "user": 222, 
        "p": 0.5888892967355781
    }, 
    {
        "movie": 89, 
        "user": 223, 
        "p": 0.99585355275632093
    }, 
    {
        "movie": 92, 
        "user": 224, 
        "p": 2.7938990608412397
    }, 
    {
        "movie": 99, 
        "user": 225, 
        "p": 2.3828872328735886
    }, 
    {
        "movie": 57, 
        "user": 226, 
        "p": 0.29609195183483311
    }, 
    {
        "movie": 297, 
        "user": 227, 
        "p": 0.12439062407582281
    }, 
    {
        "movie": 191, 
        "user": 228, 
        "p": 1.9679762693553238
    }, 
    {
        "movie": 736, 
        "user": 229, 
        "p": 0.60303634577706366
    }, 
    {
        "movie": 49, 
        "user": 230, 
        "p": 3.3008321479596483
    }, 
    {
        "movie": 99, 
        "user": 231, 
        "p": 1.4328546899385837
    }, 
    {
        "movie": 153, 
        "user": 232, 
        "p": 5.1360241097416983
    }, 
    {
        "movie": 69, 
        "user": 233, 
        "p": 0.62508652392321085
    }, 
    {
        "movie": 197, 
        "user": 234, 
        "p": 2.4267035283819638
    }, 
    {
        "movie": 29, 
        "user": 235, 
        "p": 3.0596358675719664
    }, 
    {
        "movie": 505, 
        "user": 236, 
        "p": 2.675703858817343
    }, 
    {
        "movie": 57, 
        "user": 237, 
        "p": 2.1009104930794047
    }, 
    {
        "movie": 49, 
        "user": 238, 
        "p": 1.6185039924994291
    }, 
    {
        "movie": 59, 
        "user": 239, 
        "p": 2.3162565593716513
    }, 
    {
        "movie": 480, 
        "user": 240, 
        "p": 3.1407979012882934
    }, 
    {
        "movie": 92, 
        "user": 241, 
        "p": 2.3109421720719427
    }, 
    {
        "movie": 89, 
        "user": 242, 
        "p": 4.7993972415506931
    }, 
    {
        "movie": 447, 
        "user": 243, 
        "p": 3.4540600455178709
    }, 
    {
        "movie": 202, 
        "user": 244, 
        "p": 1.823542217838565
    }, 
    {
        "movie": 99, 
        "user": 245, 
        "p": 3.3598382448024955
    }, 
    {
        "movie": 57, 
        "user": 246, 
        "p": 0.76939163988762638
    }, 
    {
        "movie": 106, 
        "user": 247, 
        "p": 3.2202925599384131
    }, 
    {
        "movie": 143, 
        "user": 248, 
        "p": 3.1032994381359473
    }, 
    {
        "movie": 49, 
        "user": 249, 
        "p": 1.3860866719492413
    }, 
    {
        "movie": 480, 
        "user": 250, 
        "p": 3.5771472491461713
    }, 
    {
        "movie": 137, 
        "user": 251, 
        "p": 3.1660516581875773
    }, 
    {
        "movie": 89, 
        "user": 252, 
        "p": 1.0952814996998521
    }, 
    {
        "movie": 402, 
        "user": 253, 
        "p": 4.1973640949025848
    }, 
    {
        "movie": 72, 
        "user": 254, 
        "p": 3.0321958546748307
    }, 
    {
        "movie": 122, 
        "user": 255, 
        "p": 1.9524530844796568
    }, 
    {
        "movie": 69, 
        "user": 256, 
        "p": 0.58172587717878044
    }, 
    {
        "movie": 402, 
        "user": 257, 
        "p": 1.5638923144995278
    }, 
    {
        "movie": 179, 
        "user": 258, 
        "p": 0.44884465786169653
    }, 
    {
        "movie": 99, 
        "user": 259, 
        "p": 0.69956539418462127
    }, 
    {
        "movie": 180, 
        "user": 260, 
        "p": 1.456255610775449
    }, 
    {
        "movie": 49, 
        "user": 261, 
        "p": 2.4692397450137809
    }, 
    {
        "movie": 343, 
        "user": 262, 
        "p": 3.5669564016357143
    }, 
    {
        "movie": 143, 
        "user": 263, 
        "p": 1.5769555124728132
    }, 
    {
        "movie": 101, 
        "user": 264, 
        "p": 0.78459720115960119
    }, 
    {
        "movie": 736, 
        "user": 265, 
        "p": 3.2631382814939034
    }, 
    {
        "movie": 27, 
        "user": 266, 
        "p": 1.9804760249692805
    }, 
    {
        "movie": 57, 
        "user": 267, 
        "p": 1.3872577293713484
    }, 
    {
        "movie": 90, 
        "user": 268, 
        "p": 3.2034472114735055
    }, 
    {
        "movie": 121, 
        "user": 269, 
        "p": 0.27386315919705162
    }, 
    {
        "movie": 1600, 
        "user": 270, 
        "p": 2.945359809724545
    }, 
    {
        "movie": 57, 
        "user": 271, 
        "p": 2.3593497542966415
    }, 
    {
        "movie": 179, 
        "user": 272, 
        "p": 1.1380985172745648
    }, 
    {
        "movie": 180, 
        "user": 273, 
        "p": 2.8558953764399733
    }, 
    {
        "movie": 24, 
        "user": 274, 
        "p": 0.82876018998241119
    }, 
    {
        "movie": 99, 
        "user": 275, 
        "p": 3.985724587942348
    }, 
    {
        "movie": 432, 
        "user": 276, 
        "p": 0.22998678578943182
    }, 
    {
        "movie": 179, 
        "user": 277, 
        "p": 1.7571307601490378
    }, 
    {
        "movie": 327, 
        "user": 278, 
        "p": 0.97729289578384981
    }, 
    {
        "movie": 323, 
        "user": 279, 
        "p": 2.2672235614988705
    }, 
    {
        "movie": 106, 
        "user": 280, 
        "p": 0.50987613815203392
    }, 
    {
        "movie": 99, 
        "user": 281, 
        "p": 2.9446689814451514
    }, 
    {
        "movie": 402, 
        "user": 282, 
        "p": 4.1811900366969805
    }, 
    {
        "movie": 122, 
        "user": 283, 
        "p": 3.3032756807481829
    }, 
    {
        "movie": 89, 
        "user": 284, 
        "p": 0.96104123687569443
    }, 
    {
        "movie": 153, 
        "user": 285, 
        "p": 3.2191356557817739
    }, 
    {
        "movie": 106, 
        "user": 286, 
        "p": 0.42427870502285375
    }, 
    {
        "movie": 197, 
        "user": 287, 
        "p": 3.7599617044668432
    }, 
    {
        "movie": 69, 
        "user": 288, 
        "p": 3.7130072271724237
    }, 
    {
        "movie": 244, 
        "user": 289, 
        "p": 0.17132185460428836
    }, 
    {
        "movie": 49, 
        "user": 290, 
        "p": 1.4107692652587094
    }, 
    {
        "movie": 143, 
        "user": 291, 
        "p": 2.4681301823164383
    }, 
    {
        "movie": 1339, 
        "user": 292, 
        "p": 3.5389206008113607
    }, 
    {
        "movie": 402, 
        "user": 293, 
        "p": 1.7037432093836329
    }, 
    {
        "movie": 650, 
        "user": 294, 
        "p": 4.5148781591569822
    }, 
    {
        "movie": 417, 
        "user": 295, 
        "p": 3.6454852762613661
    }, 
    {
        "movie": 480, 
        "user": 296, 
        "p": 0.37580117070813951
    }, 
    {
        "movie": 99, 
        "user": 297, 
        "p": 2.4312763798258987
    }, 
    {
        "movie": 179, 
        "user": 298, 
        "p": 1.7682077770584999
    }, 
    {
        "movie": 103, 
        "user": 299, 
        "p": 3.8585753965798801
    }, 
    {
        "movie": 402, 
        "user": 300, 
        "p": 2.0044598300520797
    }, 
    {
        "movie": 165, 
        "user": 301, 
        "p": 0.099019466251007743
    }, 
    {
        "movie": 57, 
        "user": 302, 
        "p": 1.6650355270717077
    }, 
    {
        "movie": 480, 
        "user": 303, 
        "p": 3.7585956588886464
    }, 
    {
        "movie": 92, 
        "user": 304, 
        "p": 2.5735487624023499
    }, 
    {
        "movie": 92, 
        "user": 305, 
        "p": 0.70391577389932003
    }, 
    {
        "movie": 88, 
        "user": 306, 
        "p": 4.1921118016644314
    }, 
    {
        "movie": 92, 
        "user": 307, 
        "p": 2.1832838656140137
    }, 
    {
        "movie": 146, 
        "user": 308, 
        "p": 1.5385488008587469
    }, 
    {
        "movie": 121, 
        "user": 309, 
        "p": 3.5586692145659811
    }, 
    {
        "movie": 185, 
        "user": 310, 
        "p": 0.15840911844340461
    }, 
    {
        "movie": 287, 
        "user": 311, 
        "p": 3.2724104259924442
    }, 
    {
        "movie": 23, 
        "user": 312, 
        "p": 3.3287797821655465
    }, 
    {
        "movie": 432, 
        "user": 313, 
        "p": 3.3950844906538729
    }, 
    {
        "movie": 49, 
        "user": 314, 
        "p": 1.559433809224908
    }, 
    {
        "movie": 180, 
        "user": 315, 
        "p": 0.41797061403067642
    }, 
    {
        "movie": 197, 
        "user": 316, 
        "p": 2.6369144055926044
    }, 
    {
        "movie": 92, 
        "user": 317, 
        "p": 1.6112442720667468
    }, 
    {
        "movie": 89, 
        "user": 318, 
        "p": 0.86484127476649475
    }, 
    {
        "movie": 49, 
        "user": 319, 
        "p": 1.1830222034715241
    }, 
    {
        "movie": 122, 
        "user": 320, 
        "p": 1.8690990830758949
    }, 
    {
        "movie": 99, 
        "user": 321, 
        "p": 1.1035171999062887
    }, 
    {
        "movie": 121, 
        "user": 322, 
        "p": 0.38757386993396448
    }, 
    {
        "movie": 57, 
        "user": 323, 
        "p": 0.77928523593076471
    }, 
    {
        "movie": 129, 
        "user": 324, 
        "p": 2.9719008114004368
    }, 
    {
        "movie": 88, 
        "user": 325, 
        "p": 0.10680577985144765
    }, 
    {
        "movie": 143, 
        "user": 326, 
        "p": 0.9644851890756726
    }, 
    {
        "movie": 402, 
        "user": 327, 
        "p": 1.2284241977150454
    }, 
    {
        "movie": 106, 
        "user": 328, 
        "p": 2.5019634310915371
    }, 
    {
        "movie": 89, 
        "user": 329, 
        "p": 0.96617912284382268
    }, 
    {
        "movie": 49, 
        "user": 330, 
        "p": 1.9954666850801257
    }, 
    {
        "movie": 57, 
        "user": 331, 
        "p": 0.2137162833426797
    }, 
    {
        "movie": 447, 
        "user": 332, 
        "p": 0.41190591658205233
    }, 
    {
        "movie": 480, 
        "user": 333, 
        "p": 2.2359265607579508
    }, 
    {
        "movie": 92, 
        "user": 334, 
        "p": 1.4376570148513776
    }, 
    {
        "movie": 179, 
        "user": 335, 
        "p": 0.29518103510634291
    }, 
    {
        "movie": 179, 
        "user": 336, 
        "p": 0.80756199081163249
    }, 
    {
        "movie": 106, 
        "user": 337, 
        "p": 0.87807844541557356
    }, 
    {
        "movie": 146, 
        "user": 338, 
        "p": 2.7260349276155442
    }, 
    {
        "movie": 89, 
        "user": 339, 
        "p": 2.1363177986746678
    }, 
    {
        "movie": 92, 
        "user": 340, 
        "p": 1.4188703871304036
    }, 
    {
        "movie": 457, 
        "user": 341, 
        "p": 0.18531194276956151
    }, 
    {
        "movie": 720, 
        "user": 342, 
        "p": 2.6918541911769123
    }, 
    {
        "movie": 89, 
        "user": 343, 
        "p": 1.0114607458812075
    }, 
    {
        "movie": 29, 
        "user": 344, 
        "p": 3.9434867960609781
    }, 
    {
        "movie": 459, 
        "user": 345, 
        "p": 3.2371301360543701
    }, 
    {
        "movie": 202, 
        "user": 346, 
        "p": 3.5008304461034516
    }, 
    {
        "movie": 197, 
        "user": 347, 
        "p": 1.2354685811473016
    }, 
    {
        "movie": 99, 
        "user": 348, 
        "p": 1.193768462513761
    }, 
    {
        "movie": 402, 
        "user": 349, 
        "p": 0.41712659848343508
    }, 
    {
        "movie": 119, 
        "user": 350, 
        "p": 2.6900996791961558
    }, 
    {
        "movie": 180, 
        "user": 351, 
        "p": 0.6691257298296468
    }, 
    {
        "movie": 402, 
        "user": 352, 
        "p": 2.2602544959082618
    }, 
    {
        "movie": 474, 
        "user": 353, 
        "p": 2.8455784119741963
    }, 
    {
        "movie": 49, 
        "user": 354, 
        "p": 2.6942380449351955
    }, 
    {
        "movie": 505, 
        "user": 355, 
        "p": 3.3939280114975037
    }, 
    {
        "movie": 330, 
        "user": 356, 
        "p": 0.079351300065866825
    }, 
    {
        "movie": 49, 
        "user": 357, 
        "p": 1.3511559922569389
    }, 
    {
        "movie": 459, 
        "user": 358, 
        "p": 3.7766936259893362
    }, 
    {
        "movie": 49, 
        "user": 359, 
        "p": 1.1906601591225607
    }, 
    {
        "movie": 49, 
        "user": 360, 
        "p": 1.3200370124770084
    }, 
    {
        "movie": 89, 
        "user": 361, 
        "p": 1.2130097323316871
    }, 
    {
        "movie": 412, 
        "user": 362, 
        "p": 2.7920307465818532
    }, 
    {
        "movie": 180, 
        "user": 363, 
        "p": 2.9050056142171745
    }, 
    {
        "movie": 137, 
        "user": 364, 
        "p": 0.55950804235715024
    }, 
    {
        "movie": 412, 
        "user": 365, 
        "p": 1.2501514152955704
    }, 
    {
        "movie": 354, 
        "user": 366, 
        "p": 0.46987539096110065
    }, 
    {
        "movie": 106, 
        "user": 367, 
        "p": 2.6705106440446587
    }, 
    {
        "movie": 179, 
        "user": 368, 
        "p": 0.59096212493080291
    }, 
    {
        "movie": 92, 
        "user": 369, 
        "p": 3.3616141346060751
    }, 
    {
        "movie": 180, 
        "user": 370, 
        "p": 2.3066517170680094
    }, 
    {
        "movie": 137, 
        "user": 371, 
        "p": 2.7722689818070592
    }, 
    {
        "movie": 101, 
        "user": 372, 
        "p": 0.47904255706337423
    }, 
    {
        "movie": 184, 
        "user": 373, 
        "p": 2.8066090211078984
    }, 
    {
        "movie": 402, 
        "user": 374, 
        "p": 0.353827475496581
    }, 
    {
        "movie": 99, 
        "user": 375, 
        "p": 1.9996073649909742
    }, 
    {
        "movie": 505, 
        "user": 376, 
        "p": 1.0816823752313727
    }, 
    {
        "movie": 59, 
        "user": 377, 
        "p": 0.2609913239401031
    }, 
    {
        "movie": 479, 
        "user": 378, 
        "p": 2.3283040528625696
    }, 
    {
        "movie": 474, 
        "user": 379, 
        "p": 2.1769646143397856
    }, 
    {
        "movie": 1310, 
        "user": 380, 
        "p": 4.3107431297579328
    }, 
    {
        "movie": 99, 
        "user": 381, 
        "p": 1.30030372750503
    }, 
    {
        "movie": 161, 
        "user": 382, 
        "p": 2.4728283153645947
    }, 
    {
        "movie": 92, 
        "user": 383, 
        "p": 1.9199127293362832
    }, 
    {
        "movie": 170, 
        "user": 384, 
        "p": 3.3551510345627698
    }, 
    {
        "movie": 91, 
        "user": 385, 
        "p": 3.3545075913902025
    }, 
    {
        "movie": 402, 
        "user": 386, 
        "p": 1.1585764779859322
    }, 
    {
        "movie": 180, 
        "user": 387, 
        "p": 3.3169212879443388
    }, 
    {
        "movie": 519, 
        "user": 388, 
        "p": 3.984797527197832
    }, 
    {
        "movie": 69, 
        "user": 389, 
        "p": 2.1050772604569463
    }, 
    {
        "movie": 90, 
        "user": 390, 
        "p": 2.560395837257984
    }, 
    {
        "movie": 49, 
        "user": 391, 
        "p": 2.5789134383515706
    }, 
    {
        "movie": 99, 
        "user": 392, 
        "p": 0.46847227514114342
    }, 
    {
        "movie": 505, 
        "user": 393, 
        "p": 0.38109804647171353
    }, 
    {
        "movie": 57, 
        "user": 394, 
        "p": 3.6932339176786888
    }, 
    {
        "movie": 179, 
        "user": 395, 
        "p": 1.1237125130457641
    }, 
    {
        "movie": 49, 
        "user": 396, 
        "p": 3.4002373783401936
    }, 
    {
        "movie": 137, 
        "user": 397, 
        "p": 0.66415275522695394
    }, 
    {
        "movie": 143, 
        "user": 398, 
        "p": 1.203080628188792
    }, 
    {
        "movie": 57, 
        "user": 399, 
        "p": 1.3365382198948761
    }, 
    {
        "movie": 58, 
        "user": 400, 
        "p": 2.171048672970493
    }, 
    {
        "movie": 191, 
        "user": 401, 
        "p": 2.2668788599109471
    }, 
    {
        "movie": 477, 
        "user": 402, 
        "p": 2.9876061028832912
    }, 
    {
        "movie": 23, 
        "user": 403, 
        "p": 0.50434668970495233
    }, 
    {
        "movie": 402, 
        "user": 404, 
        "p": 0.51947154847151988
    }, 
    {
        "movie": 113, 
        "user": 405, 
        "p": 3.7330482668561555
    }, 
    {
        "movie": 143, 
        "user": 406, 
        "p": 1.5138869074620287
    }, 
    {
        "movie": 173, 
        "user": 407, 
        "p": 3.2667306090678192
    }, 
    {
        "movie": 89, 
        "user": 408, 
        "p": 2.2268541797257724
    }, 
    {
        "movie": 92, 
        "user": 409, 
        "p": 2.2125926106014364
    }, 
    {
        "movie": 92, 
        "user": 410, 
        "p": 1.9702467358083364
    }, 
    {
        "movie": 49, 
        "user": 411, 
        "p": 0.96501315679684885
    }, 
    {
        "movie": 358, 
        "user": 412, 
        "p": 2.0430668588731402
    }, 
    {
        "movie": 89, 
        "user": 413, 
        "p": 0.71340806049181094
    }, 
    {
        "movie": 99, 
        "user": 414, 
        "p": 0.29236225481249217
    }, 
    {
        "movie": 92, 
        "user": 415, 
        "p": 1.9895171825727127
    }, 
    {
        "movie": 90, 
        "user": 416, 
        "p": 3.2449633360308807
    }, 
    {
        "movie": 197, 
        "user": 417, 
        "p": 2.4909197752819914
    }, 
    {
        "movie": 88, 
        "user": 418, 
        "p": 2.5934739461632206
    }, 
    {
        "movie": 99, 
        "user": 419, 
        "p": 1.2465516846298972
    }, 
    {
        "movie": 143, 
        "user": 420, 
        "p": 2.429623014987627
    }, 
    {
        "movie": 49, 
        "user": 421, 
        "p": 2.3666190109105463
    }, 
    {
        "movie": 79, 
        "user": 422, 
        "p": 1.8245127851961644
    }, 
    {
        "movie": 143, 
        "user": 423, 
        "p": 3.4837031805427161
    }, 
    {
        "movie": 327, 
        "user": 424, 
        "p": 0.4008993371583513
    }, 
    {
        "movie": 402, 
        "user": 425, 
        "p": 2.4844827149483169
    }, 
    {
        "movie": 143, 
        "user": 426, 
        "p": 3.3162130190021855
    }, 
    {
        "movie": 130, 
        "user": 427, 
        "p": 2.5870477878487801
    }, 
    {
        "movie": 99, 
        "user": 428, 
        "p": 4.9894163223166972
    }, 
    {
        "movie": 99, 
        "user": 429, 
        "p": 0.57113540532083928
    }, 
    {
        "movie": 79, 
        "user": 430, 
        "p": 4.8764008694333558
    }, 
    {
        "movie": 157, 
        "user": 431, 
        "p": 4.338066221241478
    }, 
    {
        "movie": 121, 
        "user": 432, 
        "p": 2.4299185707545825
    }, 
    {
        "movie": 122, 
        "user": 433, 
        "p": 4.8698980151385109
    }, 
    {
        "movie": 23, 
        "user": 434, 
        "p": 2.2649799511751847
    }, 
    {
        "movie": 180, 
        "user": 435, 
        "p": 1.1358830012951726
    }, 
    {
        "movie": 327, 
        "user": 436, 
        "p": 1.3016649845854913
    }, 
    {
        "movie": 57, 
        "user": 437, 
        "p": 1.3651024301464312
    }, 
    {
        "movie": 57, 
        "user": 438, 
        "p": 1.2223786902816349
    }, 
    {
        "movie": 402, 
        "user": 439, 
        "p": 2.0085658772992794
    }, 
    {
        "movie": 69, 
        "user": 440, 
        "p": 2.4853992708484278
    }, 
    {
        "movie": 79, 
        "user": 441, 
        "p": 2.3768320225060142
    }, 
    {
        "movie": 412, 
        "user": 442, 
        "p": 4.2566600604059168
    }, 
    {
        "movie": 197, 
        "user": 443, 
        "p": 1.4806599051411493
    }, 
    {
        "movie": 121, 
        "user": 444, 
        "p": 0.21968289611728881
    }, 
    {
        "movie": 79, 
        "user": 445, 
        "p": 0.69779891190066257
    }, 
    {
        "movie": 402, 
        "user": 446, 
        "p": 1.0508095034712885
    }, 
    {
        "movie": 57, 
        "user": 447, 
        "p": 3.1564811634206111
    }, 
    {
        "movie": 99, 
        "user": 448, 
        "p": 1.4697798272821916
    }, 
    {
        "movie": 27, 
        "user": 449, 
        "p": 1.8500790102999645
    }, 
    {
        "movie": 57, 
        "user": 450, 
        "p": 3.0022295772673493
    }, 
    {
        "movie": 327, 
        "user": 451, 
        "p": 0.59474848716608708
    }, 
    {
        "movie": 24, 
        "user": 452, 
        "p": 4.5126166420824152
    }, 
    {
        "movie": 106, 
        "user": 453, 
        "p": 1.6746269767685202
    }, 
    {
        "movie": 57, 
        "user": 454, 
        "p": 1.7861797358746392
    }, 
    {
        "movie": 92, 
        "user": 455, 
        "p": 1.5258474605872785
    }, 
    {
        "movie": 122, 
        "user": 456, 
        "p": 2.1921383393687015
    }, 
    {
        "movie": 479, 
        "user": 457, 
        "p": 2.8436235063444606
    }, 
    {
        "movie": 143, 
        "user": 458, 
        "p": 3.1980043757226557
    }, 
    {
        "movie": 89, 
        "user": 459, 
        "p": 0.88874627914633764
    }, 
    {
        "movie": 327, 
        "user": 460, 
        "p": 3.7328765344810342
    }, 
    {
        "movie": 177, 
        "user": 461, 
        "p": 3.6696835046143166
    }, 
    {
        "movie": 69, 
        "user": 462, 
        "p": 0.70418062568326245
    }, 
    {
        "movie": 196, 
        "user": 463, 
        "p": 3.3523151420864381
    }, 
    {
        "movie": 57, 
        "user": 464, 
        "p": 1.5598518867591924
    }, 
    {
        "movie": 354, 
        "user": 465, 
        "p": 0.59674317591751136
    }, 
    {
        "movie": 177, 
        "user": 466, 
        "p": 3.0279496704952598
    }, 
    {
        "movie": 122, 
        "user": 467, 
        "p": 0.86289154011288705
    }, 
    {
        "movie": 2166, 
        "user": 468, 
        "p": 4.2484784302436411
    }, 
    {
        "movie": 227, 
        "user": 469, 
        "p": 0.1607803761378401
    }, 
    {
        "movie": 177, 
        "user": 470, 
        "p": 0.59187954331211245
    }, 
    {
        "movie": 197, 
        "user": 471, 
        "p": 3.0790907990700052
    }, 
    {
        "movie": 768, 
        "user": 472, 
        "p": 4.7887777990218723
    }, 
    {
        "movie": 480, 
        "user": 473, 
        "p": 1.7765002297967494
    }, 
    {
        "movie": 179, 
        "user": 474, 
        "p": 1.1381612397753194
    }, 
    {
        "movie": 1546, 
        "user": 475, 
        "p": 3.3625808798937111
    }, 
    {
        "movie": 474, 
        "user": 476, 
        "p": 0.76931102460669765
    }, 
    {
        "movie": 106, 
        "user": 477, 
        "p": 0.35110398738422
    }, 
    {
        "movie": 92, 
        "user": 478, 
        "p": 2.3413315188437145
    }, 
    {
        "movie": 57, 
        "user": 479, 
        "p": 2.6663013328881924
    }, 
    {
        "movie": 143, 
        "user": 480, 
        "p": 4.2400171075646202
    }, 
    {
        "movie": 630, 
        "user": 481, 
        "p": 4.0656519657493178
    }, 
    {
        "movie": 179, 
        "user": 482, 
        "p": 0.70524955436892256
    }, 
    {
        "movie": 49, 
        "user": 483, 
        "p": 2.8567915052621955
    }, 
    {
        "movie": 72, 
        "user": 484, 
        "p": 0.60119582794762749
    }, 
    {
        "movie": 298, 
        "user": 485, 
        "p": 0.16481022764472397
    }, 
    {
        "movie": 480, 
        "user": 486, 
        "p": 2.0643112560069152
    }, 
    {
        "movie": 48, 
        "user": 487, 
        "p": 3.538755206874773
    }, 
    {
        "movie": 49, 
        "user": 488, 
        "p": 1.391931231468502
    }, 
    {
        "movie": 99, 
        "user": 489, 
        "p": 0.45064766218751656
    }, 
    {
        "movie": 89, 
        "user": 490, 
        "p": 0.69523945732561399
    }, 
    {
        "movie": 49, 
        "user": 491, 
        "p": 1.0407547271074267
    }, 
    {
        "movie": 49, 
        "user": 492, 
        "p": 0.67677609402215055
    }, 
    {
        "movie": 99, 
        "user": 493, 
        "p": 1.4281700066927496
    }, 
    {
        "movie": 121, 
        "user": 494, 
        "p": 2.386571591904163
    }, 
    {
        "movie": 49, 
        "user": 495, 
        "p": 2.1796619163448216
    }, 
    {
        "movie": 49, 
        "user": 496, 
        "p": 4.4342235023140733
    }, 
    {
        "movie": 143, 
        "user": 497, 
        "p": 1.6363288183534468
    }, 
    {
        "movie": 101, 
        "user": 498, 
        "p": 0.35135719473643739
    }, 
    {
        "movie": 505, 
        "user": 499, 
        "p": 1.0936147986496321
    }, 
    {
        "movie": 129, 
        "user": 500, 
        "p": 2.5007021745615785
    }, 
    {
        "movie": 121, 
        "user": 501, 
        "p": 3.5640748600794221
    }, 
    {
        "movie": 92, 
        "user": 502, 
        "p": 2.5267845032342504
    }, 
    {
        "movie": 99, 
        "user": 503, 
        "p": 2.1313274567163254
    }, 
    {
        "movie": 402, 
        "user": 504, 
        "p": 0.19418993965748835
    }, 
    {
        "movie": 105, 
        "user": 505, 
        "p": 3.589135609290472
    }, 
    {
        "movie": 57, 
        "user": 506, 
        "p": 0.7196486519601174
    }, 
    {
        "movie": 89, 
        "user": 507, 
        "p": 1.0598851238324454
    }, 
    {
        "movie": 27, 
        "user": 508, 
        "p": 2.365897043891191
    }, 
    {
        "movie": 194, 
        "user": 509, 
        "p": 4.0591865265936766
    }, 
    {
        "movie": 157, 
        "user": 510, 
        "p": 2.3194283491654955
    }, 
    {
        "movie": 92, 
        "user": 511, 
        "p": 1.7112484469670026
    }, 
    {
        "movie": 402, 
        "user": 512, 
        "p": 1.1306409768949053
    }, 
    {
        "movie": 89, 
        "user": 513, 
        "p": 1.4582373101484005
    }, 
    {
        "movie": 79, 
        "user": 514, 
        "p": 4.5054999216592799
    }, 
    {
        "movie": 564, 
        "user": 515, 
        "p": 0.68498812534294329
    }, 
    {
        "movie": 69, 
        "user": 516, 
        "p": 4.3367249041778164
    }, 
    {
        "movie": 29, 
        "user": 517, 
        "p": 2.8881118185845183
    }, 
    {
        "movie": 172, 
        "user": 518, 
        "p": 3.4598929310960886
    }, 
    {
        "movie": 121, 
        "user": 519, 
        "p": 3.1457206507731117
    }, 
    {
        "movie": 57, 
        "user": 520, 
        "p": 3.8082900200042662
    }, 
    {
        "movie": 49, 
        "user": 521, 
        "p": 2.1680021601286872
    }, 
    {
        "movie": 99, 
        "user": 522, 
        "p": 3.4690492234152499
    }, 
    {
        "movie": 197, 
        "user": 523, 
        "p": 3.2782961701841882
    }, 
    {
        "movie": 402, 
        "user": 524, 
        "p": 1.2760393487810509
    }, 
    {
        "movie": 180, 
        "user": 525, 
        "p": 3.4153947424666895
    }, 
    {
        "movie": 480, 
        "user": 526, 
        "p": 0.84931562876277134
    }, 
    {
        "movie": 99, 
        "user": 527, 
        "p": 3.4972293453018866
    }, 
    {
        "movie": 121, 
        "user": 528, 
        "p": 2.2316475496053556
    }, 
    {
        "movie": 160, 
        "user": 529, 
        "p": 3.7197366738906408
    }, 
    {
        "movie": 89, 
        "user": 530, 
        "p": 1.6684265082281688
    }, 
    {
        "movie": 99, 
        "user": 531, 
        "p": 1.8059122385370272
    }, 
    {
        "movie": 143, 
        "user": 532, 
        "p": 1.7548768251073303
    }, 
    {
        "movie": 106, 
        "user": 533, 
        "p": 3.2377256905223839
    }, 
    {
        "movie": 91, 
        "user": 534, 
        "p": 3.8451694027706611
    }, 
    {
        "movie": 29, 
        "user": 535, 
        "p": 2.9648302925834691
    }, 
    {
        "movie": 57, 
        "user": 536, 
        "p": 3.4666627757197426
    }, 
    {
        "movie": 101, 
        "user": 537, 
        "p": 4.3216413020402218
    }, 
    {
        "movie": 57, 
        "user": 538, 
        "p": 1.5695858685732917
    }, 
    {
        "movie": 92, 
        "user": 539, 
        "p": 0.96306065586681988
    }, 
    {
        "movie": 122, 
        "user": 540, 
        "p": 0.39064423111172586
    }, 
    {
        "movie": 121, 
        "user": 541, 
        "p": 0.7529108282585788
    }, 
    {
        "movie": 402, 
        "user": 542, 
        "p": 1.8018091108958258
    }, 
    {
        "movie": 89, 
        "user": 543, 
        "p": 1.1102401486799891
    }, 
    {
        "movie": 99, 
        "user": 544, 
        "p": 4.07791805535871
    }, 
    {
        "movie": 99, 
        "user": 545, 
        "p": 1.7147236941302586
    }, 
    {
        "movie": 143, 
        "user": 546, 
        "p": 1.6563670707737455
    }, 
    {
        "movie": 784, 
        "user": 547, 
        "p": 2.4589257088942014
    }, 
    {
        "movie": 91, 
        "user": 548, 
        "p": 3.4756460257853803
    }, 
    {
        "movie": 49, 
        "user": 549, 
        "p": 0.59719128299190427
    }, 
    {
        "movie": 143, 
        "user": 550, 
        "p": 3.1177363245608558
    }, 
    {
        "movie": 88, 
        "user": 551, 
        "p": 1.7047591502061901
    }, 
    {
        "movie": 99, 
        "user": 552, 
        "p": 1.2625940105256583
    }, 
    {
        "movie": 197, 
        "user": 553, 
        "p": 4.0143284055279764
    }, 
    {
        "movie": 143, 
        "user": 554, 
        "p": 1.09685171171344
    }, 
    {
        "movie": 57, 
        "user": 555, 
        "p": 2.6755512224443359
    }, 
    {
        "movie": 57, 
        "user": 556, 
        "p": 2.502418445735525
    }, 
    {
        "movie": 59, 
        "user": 557, 
        "p": 0.4208323036716784
    }, 
    {
        "movie": 457, 
        "user": 558, 
        "p": 2.0921878807464878
    }, 
    {
        "movie": 72, 
        "user": 559, 
        "p": 3.2486740562727885
    }, 
    {
        "movie": 143, 
        "user": 560, 
        "p": 2.1741257863416381
    }, 
    {
        "movie": 477, 
        "user": 561, 
        "p": 3.7461043346674732
    }, 
    {
        "movie": 88, 
        "user": 562, 
        "p": 3.7457265761646941
    }, 
    {
        "movie": 143, 
        "user": 563, 
        "p": 2.7256707747847799
    }, 
    {
        "movie": 196, 
        "user": 564, 
        "p": 3.1623271110556397
    }, 
    {
        "movie": 99, 
        "user": 565, 
        "p": 0.85259696102578209
    }, 
    {
        "movie": 564, 
        "user": 566, 
        "p": 0.50520762952645504
    }, 
    {
        "movie": 49, 
        "user": 567, 
        "p": 2.3641100546898257
    }, 
    {
        "movie": 27, 
        "user": 568, 
        "p": 2.565781702405622
    }, 
    {
        "movie": 143, 
        "user": 569, 
        "p": 1.8068318712941147
    }, 
    {
        "movie": 197, 
        "user": 570, 
        "p": 2.2897281347564413
    }, 
    {
        "movie": 122, 
        "user": 571, 
        "p": 0.53233009589227265
    }, 
    {
        "movie": 564, 
        "user": 572, 
        "p": 1.7982563405624921
    }, 
    {
        "movie": 179, 
        "user": 573, 
        "p": 0.60555711694198533
    }, 
    {
        "movie": 92, 
        "user": 574, 
        "p": 4.3914864078964557
    }, 
    {
        "movie": 174, 
        "user": 575, 
        "p": 3.5248403433151925
    }, 
    {
        "movie": 180, 
        "user": 576, 
        "p": 1.1283757561774412
    }, 
    {
        "movie": 110, 
        "user": 577, 
        "p": 4.5227782932958238
    }, 
    {
        "movie": 49, 
        "user": 578, 
        "p": 1.084139424213781
    }, 
    {
        "movie": 122, 
        "user": 579, 
        "p": 0.17582439133861458
    }, 
    {
        "movie": 474, 
        "user": 580, 
        "p": 3.9937269457630817
    }, 
    {
        "movie": 179, 
        "user": 581, 
        "p": 0.091144966333080099
    }, 
    {
        "movie": 128, 
        "user": 582, 
        "p": 1.7922080394970021
    }, 
    {
        "movie": 92, 
        "user": 583, 
        "p": 1.2121718385446405
    }, 
    {
        "movie": 143, 
        "user": 584, 
        "p": 3.861067790992776
    }, 
    {
        "movie": 505, 
        "user": 585, 
        "p": 4.6113791619355879
    }, 
    {
        "movie": 180, 
        "user": 586, 
        "p": 1.9201319773216474
    }, 
    {
        "movie": 329, 
        "user": 587, 
        "p": 5.0134302913814182
    }, 
    {
        "movie": 88, 
        "user": 588, 
        "p": 2.2316631905869126
    }, 
    {
        "movie": 57, 
        "user": 589, 
        "p": 2.2447634895042854
    }, 
    {
        "movie": 92, 
        "user": 590, 
        "p": 3.9997343604978028
    }, 
    {
        "movie": 105, 
        "user": 591, 
        "p": 0.54852698814138512
    }, 
    {
        "movie": 197, 
        "user": 592, 
        "p": 2.6529529850086537
    }, 
    {
        "movie": 90, 
        "user": 593, 
        "p": 3.1530678778348888
    }, 
    {
        "movie": 197, 
        "user": 594, 
        "p": 1.7661922142116344
    }, 
    {
        "movie": 57, 
        "user": 595, 
        "p": 2.2985518177037134
    }, 
    {
        "movie": 473, 
        "user": 596, 
        "p": 3.7501206847087034
    }, 
    {
        "movie": 180, 
        "user": 597, 
        "p": 3.8519450441965719
    }, 
    {
        "movie": 129, 
        "user": 598, 
        "p": 3.4540719528364212
    }, 
    {
        "movie": 137, 
        "user": 599, 
        "p": 2.3199494766132784
    }, 
    {
        "movie": 1550, 
        "user": 600, 
        "p": 0.73825170425901188
    }, 
    {
        "movie": 122, 
        "user": 601, 
        "p": 0.82284299707644371
    }, 
    {
        "movie": 64, 
        "user": 602, 
        "p": 2.9317914773533014
    }, 
    {
        "movie": 57, 
        "user": 603, 
        "p": 2.9649574636824823
    }, 
    {
        "movie": 69, 
        "user": 604, 
        "p": 0.12790712154928816
    }, 
    {
        "movie": 161, 
        "user": 605, 
        "p": 2.6799290998938896
    }, 
    {
        "movie": 99, 
        "user": 606, 
        "p": 1.5230632412547229
    }, 
    {
        "movie": 113, 
        "user": 607, 
        "p": 4.5224001016075865
    }, 
    {
        "movie": 183, 
        "user": 608, 
        "p": 3.4932438002954216
    }, 
    {
        "movie": 505, 
        "user": 609, 
        "p": 0.39674121663825385
    }, 
    {
        "movie": 122, 
        "user": 610, 
        "p": 1.4862063376956953
    }, 
    {
        "movie": 480, 
        "user": 611, 
        "p": 0.8280910262756106
    }, 
    {
        "movie": 412, 
        "user": 612, 
        "p": 1.0641419698105667
    }, 
    {
        "movie": 179, 
        "user": 613, 
        "p": 1.7395349080243134
    }, 
    {
        "movie": 99, 
        "user": 614, 
        "p": 1.5491179516571507
    }, 
    {
        "movie": 179, 
        "user": 615, 
        "p": 4.3387139672015627
    }, 
    {
        "movie": 89, 
        "user": 616, 
        "p": 0.94907925128399773
    }, 
    {
        "movie": 99, 
        "user": 617, 
        "p": 1.2899127759556224
    }, 
    {
        "movie": 49, 
        "user": 618, 
        "p": 0.75201620937394698
    }, 
    {
        "movie": 57, 
        "user": 619, 
        "p": 2.1677222278394992
    }, 
    {
        "movie": 137, 
        "user": 620, 
        "p": 2.1643300351449044
    }, 
    {
        "movie": 143, 
        "user": 621, 
        "p": 1.7077736996993613
    }, 
    {
        "movie": 412, 
        "user": 622, 
        "p": 1.7323720343499873
    }, 
    {
        "movie": 480, 
        "user": 623, 
        "p": 3.4467383708611488
    }, 
    {
        "movie": 1507, 
        "user": 624, 
        "p": 4.3231753736458955
    }, 
    {
        "movie": 137, 
        "user": 625, 
        "p": 1.7701867156390649
    }, 
    {
        "movie": 402, 
        "user": 626, 
        "p": 1.5696604956395113
    }, 
    {
        "movie": 69, 
        "user": 627, 
        "p": 2.6515485258426179
    }, 
    {
        "movie": 49, 
        "user": 628, 
        "p": 1.0068350789820339
    }, 
    {
        "movie": 99, 
        "user": 629, 
        "p": 2.0853702587077985
    }, 
    {
        "movie": 99, 
        "user": 630, 
        "p": 1.1606233386933029
    }, 
    {
        "movie": 143, 
        "user": 631, 
        "p": 0.70322790205827779
    }, 
    {
        "movie": 57, 
        "user": 632, 
        "p": 2.0860409621896179
    }, 
    {
        "movie": 92, 
        "user": 633, 
        "p": 1.8469288609901489
    }, 
    {
        "movie": 49, 
        "user": 634, 
        "p": 0.37873515890499476
    }, 
    {
        "movie": 121, 
        "user": 635, 
        "p": 1.036042090182987
    }, 
    {
        "movie": 49, 
        "user": 636, 
        "p": 0.7336990343408657
    }, 
    {
        "movie": 49, 
        "user": 637, 
        "p": 0.66789615021262538
    }, 
    {
        "movie": 105, 
        "user": 638, 
        "p": 0.17122218805807368
    }, 
    {
        "movie": 57, 
        "user": 639, 
        "p": 2.5409042351048221
    }, 
    {
        "movie": 89, 
        "user": 640, 
        "p": 0.85373073278236156
    }, 
    {
        "movie": 101, 
        "user": 641, 
        "p": 4.1699964266254206
    }, 
    {
        "movie": 720, 
        "user": 642, 
        "p": 0.56279358921447398
    }, 
    {
        "movie": 49, 
        "user": 643, 
        "p": 0.98692108328031125
    }, 
    {
        "movie": 122, 
        "user": 644, 
        "p": 0.63408053011684073
    }, 
    {
        "movie": 110, 
        "user": 645, 
        "p": 0.31565280208070962
    }, 
    {
        "movie": 105, 
        "user": 646, 
        "p": 2.6336000254355358
    }, 
    {
        "movie": 99, 
        "user": 647, 
        "p": 3.098904889017132
    }, 
    {
        "movie": 121, 
        "user": 648, 
        "p": 3.2723891977391366
    }, 
    {
        "movie": 99, 
        "user": 649, 
        "p": 3.8156038815930815
    }, 
    {
        "movie": 69, 
        "user": 650, 
        "p": 0.63484486606873392
    }, 
    {
        "movie": 402, 
        "user": 651, 
        "p": 0.91300265365922373
    }, 
    {
        "movie": 75, 
        "user": 652, 
        "p": 1.1312271178772004
    }, 
    {
        "movie": 99, 
        "user": 653, 
        "p": 1.4937844467435013
    }, 
    {
        "movie": 222, 
        "user": 654, 
        "p": 4.5630134296063867
    }, 
    {
        "movie": 57, 
        "user": 655, 
        "p": 2.1676408870662613
    }, 
    {
        "movie": 298, 
        "user": 656, 
        "p": 1.4201057997709396
    }, 
    {
        "movie": 72, 
        "user": 657, 
        "p": 1.4491750914926842
    }, 
    {
        "movie": 69, 
        "user": 658, 
        "p": 1.7330874524957514
    }, 
    {
        "movie": 32, 
        "user": 659, 
        "p": 2.8277835273791134
    }, 
    {
        "movie": 571, 
        "user": 660, 
        "p": 1.8329640966056919
    }, 
    {
        "movie": 49, 
        "user": 661, 
        "p": 0.80612489817711463
    }, 
    {
        "movie": 90, 
        "user": 662, 
        "p": 2.9118023489666016
    }, 
    {
        "movie": 99, 
        "user": 663, 
        "p": 0.71964423497741004
    }, 
    {
        "movie": 1558, 
        "user": 664, 
        "p": 3.9543992244860844
    }, 
    {
        "movie": 105, 
        "user": 665, 
        "p": 3.2285930997010159
    }, 
    {
        "movie": 99, 
        "user": 666, 
        "p": 2.1758468613220687
    }, 
    {
        "movie": 92, 
        "user": 667, 
        "p": 2.569265383371576
    }, 
    {
        "movie": 24, 
        "user": 668, 
        "p": 0.89877375013246208
    }, 
    {
        "movie": 121, 
        "user": 669, 
        "p": 0.53174277739864517
    }, 
    {
        "movie": 49, 
        "user": 670, 
        "p": 1.978579569368816
    }, 
    {
        "movie": 129, 
        "user": 671, 
        "p": 2.9137759424161445
    }
]